CMSC320 Final Project
…
model2 <- lm(log_price~bedrooms+bathrooms+beds+accommodates+room_type+property_type+neighbourhood+has_ac+has_tv+has_washer+has_dryer+has_internet+has_kitchen+has_heating+pets_allowed+review_scores_rating, data = log_price_dat %>% filter(price > 0))
model2_coeffs <- model2 %>% tidy()
model2_stats <-model2 %>% glance()

model2_stats

## # A tibble: 1 x 11
##   r.squared adj.r.squared sigma statistic p.value    df logLik    AIC
##       <dbl>         <dbl> <dbl>     <dbl>   <dbl> <int>  <dbl>  <dbl>
## 1     0.662         0.655 0.174      96.0       0   115  1925. -3619.
## # ... with 3 more variables: BIC <dbl>, deviance <dbl>, df.residual <int>

model2_coeffs %>% filter(p.value <= .05)

## # A tibble: 83 x 5
##    term        estimate std.error statistic  p.value
##    <chr>          <dbl>     <dbl>     <dbl>    <dbl>
##  1 (Intercept)   1.40     0.0723      19.3  1.19e-80
##  2 bedrooms1     0.0635   0.00927      6.85 8.31e-12
##  3 bedrooms2     0.179    0.0125      14.3  1.36e-45
##  4 bedrooms3     0.268    0.0169      15.9  1.91e-55
##  5 bedrooms4     0.358    0.0250      14.3  1.49e-45
##  6 bedrooms5     0.522    0.0495      10.5  9.54e-26
##  7 bedrooms6     0.726    0.109        6.69 2.50e-11
##  8 bedrooms7     0.501    0.146        3.43 6.15e- 4
##  9 bedrooms14   -0.789    0.217       -3.64 2.77e- 4
## 10 bathrooms1    0.138    0.0340       4.06 5.08e- 5
## # ... with 73 more rows
…
